\relax 
\providecommand\hyper@newdestlabel[2]{}
\providecommand\HyperFirstAtBeginDocument{\AtBeginDocument}
\HyperFirstAtBeginDocument{\ifx\hyper@anchor\@undefined
\global\let\oldnewlabel\newlabel
\gdef\newlabel#1#2{\newlabelxx{#1}#2}
\gdef\newlabelxx#1#2#3#4#5#6{\oldnewlabel{#1}{{#2}{#3}}}
\AtEndDocument{\ifx\hyper@anchor\@undefined
\let\newlabel\oldnewlabel
\fi}
\fi}
\global\let\hyper@last\relax 
\gdef\HyperFirstAtBeginDocument#1{#1}
\providecommand*\HyPL@Entry[1]{}
\providecommand\babel@aux[2]{}
\@nameuse{bbl@beforestart}
\HyPL@Entry{0<</S/D>>}
\babel@aux{ngerman}{}
\@writefile{toc}{\contentsline {section}{\numberline {1}Einleitung}{3}{section.1}\protected@file@percent }
\newlabel{einleitung}{{1}{3}{Einleitung}{section.1}{}}
\@writefile{toc}{\contentsline {subsection}{\numberline {1.1}Kontext}{3}{subsection.1.1}\protected@file@percent }
\newlabel{kontext}{{1.1}{3}{Kontext}{subsection.1.1}{}}
\@writefile{toc}{\contentsline {subsection}{\numberline {1.2}Über die Good Governance Initiative}{4}{subsection.1.2}\protected@file@percent }
\newlabel{uxfcber-die-good-governance-initiative}{{1.2}{4}{Über die Good Governance Initiative}{subsection.1.2}{}}
\@writefile{toc}{\contentsline {subsection}{\numberline {1.3}Über die OSPO Alliance}{4}{subsection.1.3}\protected@file@percent }
\newlabel{uxfcber-die-ospo-alliance}{{1.3}{4}{Über die OSPO Alliance}{subsection.1.3}{}}
\@writefile{toc}{\contentsline {subsection}{\numberline {1.4}Übersetzungen}{5}{subsection.1.4}\protected@file@percent }
\newlabel{uxfcbersetzungen}{{1.4}{5}{Übersetzungen}{subsection.1.4}{}}
\@writefile{toc}{\contentsline {subsection}{\numberline {1.5}Beitragende}{5}{subsection.1.5}\protected@file@percent }
\newlabel{beitragende}{{1.5}{5}{Beitragende}{subsection.1.5}{}}
\@writefile{toc}{\contentsline {subsection}{\numberline {1.6}Lizenz}{5}{subsection.1.6}\protected@file@percent }
\newlabel{lizenz}{{1.6}{5}{Lizenz}{subsection.1.6}{}}
\@writefile{toc}{\contentsline {section}{\numberline {2}Organisation}{7}{section.2}\protected@file@percent }
\newlabel{organisation}{{2}{7}{Organisation}{section.2}{}}
\@writefile{toc}{\contentsline {subsection}{\numberline {2.1}Fachwortschatz}{7}{subsection.2.1}\protected@file@percent }
\newlabel{fachwortschatz}{{2.1}{7}{Fachwortschatz}{subsection.2.1}{}}
\@writefile{toc}{\contentsline {subsection}{\numberline {2.2}Ziele}{7}{subsection.2.2}\protected@file@percent }
\newlabel{ziele}{{2.2}{7}{Ziele}{subsection.2.2}{}}
\@writefile{toc}{\contentsline {subsection}{\numberline {2.3}Anerkannte Aktivitäten}{8}{subsection.2.3}\protected@file@percent }
\newlabel{anerkannte-aktivituxe4ten}{{2.3}{8}{Anerkannte Aktivitäten}{subsection.2.3}{}}
\@writefile{toc}{\contentsline {subsubsection}{Beschreibung}{8}{section*.2}\protected@file@percent }
\newlabel{beschreibung}{{2.3}{8}{Beschreibung}{section*.2}{}}
\@writefile{toc}{\contentsline {subsubsection}{Gelegenheitsbeurteilung}{8}{section*.3}\protected@file@percent }
\newlabel{gelegenheitsbeurteilung}{{2.3}{8}{Gelegenheitsbeurteilung}{section*.3}{}}
\@writefile{toc}{\contentsline {subsubsection}{Fortschrittsbeurteilung}{8}{section*.4}\protected@file@percent }
\newlabel{fortschrittsbeurteilung}{{2.3}{8}{Fortschrittsbeurteilung}{section*.4}{}}
\@writefile{toc}{\contentsline {subsubsection}{Werkzeuge}{8}{section*.5}\protected@file@percent }
\newlabel{werkzeuge}{{2.3}{8}{Werkzeuge}{section*.5}{}}
\@writefile{toc}{\contentsline {subsubsection}{Empfehlungen}{8}{section*.6}\protected@file@percent }
\newlabel{empfehlungen}{{2.3}{8}{Empfehlungen}{section*.6}{}}
\@writefile{toc}{\contentsline {subsubsection}{Hilfsmittel}{8}{section*.7}\protected@file@percent }
\newlabel{hilfsmittel}{{2.3}{8}{Hilfsmittel}{section*.7}{}}
\@writefile{toc}{\contentsline {subsection}{\numberline {2.4}Angepasste Aktivitäts-Scorecard}{9}{subsection.2.4}\protected@file@percent }
\newlabel{angepasste-aktivituxe4ts-scorecard}{{2.4}{9}{Angepasste Aktivitäts-Scorecard}{subsection.2.4}{}}
\@writefile{toc}{\contentsline {section}{\numberline {3}Methodologie}{10}{section.3}\protected@file@percent }
\newlabel{methodologie}{{3}{10}{Methodologie}{section.3}{}}
\@writefile{toc}{\contentsline {subsection}{\numberline {3.1}Die Kulisse bereiten}{10}{subsection.3.1}\protected@file@percent }
\newlabel{die-kulisse-bereiten}{{3.1}{10}{Die Kulisse bereiten}{subsection.3.1}{}}
\@writefile{toc}{\contentsline {subsection}{\numberline {3.2}Arbeitsablauf}{10}{subsection.3.2}\protected@file@percent }
\newlabel{arbeitsablauf}{{3.2}{10}{Arbeitsablauf}{subsection.3.2}{}}
\@writefile{toc}{\contentsline {subsection}{\numberline {3.3}Manuelle Einrichtung: Angepasste Aktivitäts-Scorecards verwenden}{11}{subsection.3.3}\protected@file@percent }
\newlabel{manuelle-einrichtung-angepasste-aktivituxe4ts-scorecards-verwenden}{{3.3}{11}{Manuelle Einrichtung: Angepasste Aktivitäts-Scorecards verwenden}{subsection.3.3}{}}
\@writefile{toc}{\contentsline {subsection}{\numberline {3.4}Automatische Einrichtung: mit der GGI-Bereitstellungsfunktion}{12}{subsection.3.4}\protected@file@percent }
\newlabel{automatische-einrichtung-mit-der-ggi-bereitstellungsfunktion}{{3.4}{12}{Automatische Einrichtung: mit der GGI-Bereitstellungsfunktion}{subsection.3.4}{}}
\@writefile{toc}{\contentsline {subsection}{\numberline {3.5}Genießen}{14}{subsection.3.5}\protected@file@percent }
\newlabel{genieuxdfen}{{3.5}{14}{Genießen}{subsection.3.5}{}}
\@writefile{toc}{\contentsline {section}{\numberline {4}Verwendungsziel-Aktivitäten}{15}{section.4}\protected@file@percent }
\newlabel{verwendungsziel-aktivituxe4ten}{{4}{15}{Verwendungsziel-Aktivitäten}{section.4}{}}
\@writefile{toc}{\contentsline {subsection}{\numberline {4.1}Verzeichnis der Open-Source-Kompetenzen und -Mittel}{15}{subsection.4.1}\protected@file@percent }
\newlabel{verzeichnis-der-open-source-kompetenzen-und--mittel}{{4.1}{15}{Verzeichnis der Open-Source-Kompetenzen und -Mittel}{subsection.4.1}{}}
\@writefile{toc}{\contentsline {subsubsection}{Beschreibung}{15}{section*.8}\protected@file@percent }
\newlabel{beschreibung-1}{{4.1}{15}{Beschreibung}{section*.8}{}}
\@writefile{toc}{\contentsline {subsubsection}{Gelegenheitsbeurteilung}{15}{section*.9}\protected@file@percent }
\newlabel{gelegenheitsbeurteilung-1}{{4.1}{15}{Gelegenheitsbeurteilung}{section*.9}{}}
\@writefile{toc}{\contentsline {subsubsection}{Fortschrittsbeurteilung}{15}{section*.10}\protected@file@percent }
\newlabel{fortschrittsbeurteilung-1}{{4.1}{15}{Fortschrittsbeurteilung}{section*.10}{}}
\gdef \LT@i {\LT@entry 
    {2}{165.21388pt}\LT@entry 
    {1}{90.2715pt}\LT@entry 
    {2}{119.35353pt}\LT@entry 
    {2}{84.4463pt}\LT@entry 
    {2}{69.23732pt}}
\@writefile{toc}{\contentsline {subsubsection}{Werkzeuge}{16}{section*.11}\protected@file@percent }
\newlabel{werkzeuge-1}{{4.1}{16}{Werkzeuge}{section*.11}{}}
\@writefile{toc}{\contentsline {subsubsection}{Empfehlungen}{16}{section*.12}\protected@file@percent }
\newlabel{empfehlungen-1}{{4.1}{16}{Empfehlungen}{section*.12}{}}
\@writefile{toc}{\contentsline {subsubsection}{Hilfsmittel}{16}{section*.13}\protected@file@percent }
\newlabel{hilfsmittel-1}{{4.1}{16}{Hilfsmittel}{section*.13}{}}
\@writefile{toc}{\contentsline {subsection}{\numberline {4.2}Steigerung der Open-Source-Kompetenz}{16}{subsection.4.2}\protected@file@percent }
\newlabel{steigerung-der-open-source-kompetenz}{{4.2}{16}{Steigerung der Open-Source-Kompetenz}{subsection.4.2}{}}
\@writefile{toc}{\contentsline {subsubsection}{Beschreibung}{16}{section*.14}\protected@file@percent }
\newlabel{beschreibung-2}{{4.2}{16}{Beschreibung}{section*.14}{}}
\@writefile{toc}{\contentsline {subsubsection}{Gelegenheitsbeurteilung}{17}{section*.15}\protected@file@percent }
\newlabel{gelegenheitsbeurteilung-2}{{4.2}{17}{Gelegenheitsbeurteilung}{section*.15}{}}
\@writefile{toc}{\contentsline {subsubsection}{Fortschrittsbeurteilung}{17}{section*.16}\protected@file@percent }
\newlabel{fortschrittsbeurteilung-2}{{4.2}{17}{Fortschrittsbeurteilung}{section*.16}{}}
\@writefile{toc}{\contentsline {subsubsection}{Werkzeuge}{17}{section*.17}\protected@file@percent }
\newlabel{werkzeuge-2}{{4.2}{17}{Werkzeuge}{section*.17}{}}
\@writefile{toc}{\contentsline {subsubsection}{Empfehlungen}{17}{section*.18}\protected@file@percent }
\newlabel{empfehlungen-2}{{4.2}{17}{Empfehlungen}{section*.18}{}}
\@writefile{toc}{\contentsline {subsubsection}{Hilfsmittel}{18}{section*.19}\protected@file@percent }
\newlabel{hilfsmittel-2}{{4.2}{18}{Hilfsmittel}{section*.19}{}}
\@writefile{toc}{\contentsline {subsection}{\numberline {4.3}Open-Source-Überwachung}{18}{subsection.4.3}\protected@file@percent }
\newlabel{open-source-uxfcberwachung}{{4.3}{18}{Open-Source-Überwachung}{subsection.4.3}{}}
\@writefile{toc}{\contentsline {subsubsection}{Beschreibung}{18}{section*.20}\protected@file@percent }
\newlabel{beschreibung-3}{{4.3}{18}{Beschreibung}{section*.20}{}}
\@writefile{toc}{\contentsline {subsubsection}{Gelegenheitsbeurteilung}{18}{section*.21}\protected@file@percent }
\newlabel{gelegenheitsbeurteilung-3}{{4.3}{18}{Gelegenheitsbeurteilung}{section*.21}{}}
\@writefile{toc}{\contentsline {subsubsection}{Fortschrittsbeurteilung}{18}{section*.22}\protected@file@percent }
\newlabel{fortschrittsbeurteilung-3}{{4.3}{18}{Fortschrittsbeurteilung}{section*.22}{}}
\@writefile{toc}{\contentsline {subsubsection}{Werkzeuge}{19}{section*.23}\protected@file@percent }
\newlabel{werkzeuge-3}{{4.3}{19}{Werkzeuge}{section*.23}{}}
\@writefile{toc}{\contentsline {subsubsection}{Empfehlungen}{19}{section*.24}\protected@file@percent }
\newlabel{empfehlungen-3}{{4.3}{19}{Empfehlungen}{section*.24}{}}
\@writefile{toc}{\contentsline {subsubsection}{Hilfsmittel}{19}{section*.25}\protected@file@percent }
\newlabel{hilfsmittel-3}{{4.3}{19}{Hilfsmittel}{section*.25}{}}
\@writefile{toc}{\contentsline {subsection}{\numberline {4.4}Geschäftliche Open-Source-Software}{19}{subsection.4.4}\protected@file@percent }
\newlabel{geschuxe4ftliche-open-source-software}{{4.4}{19}{Geschäftliche Open-Source-Software}{subsection.4.4}{}}
\@writefile{toc}{\contentsline {subsubsection}{Beschreibung}{19}{section*.26}\protected@file@percent }
\newlabel{beschreibung-4}{{4.4}{19}{Beschreibung}{section*.26}{}}
\@writefile{toc}{\contentsline {subsubsection}{Gelegenheitsbeurteilung}{19}{section*.27}\protected@file@percent }
\newlabel{gelegenheitsbeurteilung-4}{{4.4}{19}{Gelegenheitsbeurteilung}{section*.27}{}}
\@writefile{toc}{\contentsline {subsubsection}{Fortschrittsbeurteilung}{20}{section*.28}\protected@file@percent }
\newlabel{fortschrittsbeurteilung-4}{{4.4}{20}{Fortschrittsbeurteilung}{section*.28}{}}
\@writefile{toc}{\contentsline {subsubsection}{Werkzeuge}{20}{section*.29}\protected@file@percent }
\newlabel{werkzeuge-4}{{4.4}{20}{Werkzeuge}{section*.29}{}}
\@writefile{toc}{\contentsline {subsubsection}{Empfehlungen}{20}{section*.30}\protected@file@percent }
\newlabel{empfehlungen-4}{{4.4}{20}{Empfehlungen}{section*.30}{}}
\@writefile{toc}{\contentsline {subsubsection}{Hilfsmittel}{20}{section*.31}\protected@file@percent }
\newlabel{hilfsmittel-4}{{4.4}{20}{Hilfsmittel}{section*.31}{}}
\@writefile{toc}{\contentsline {subsection}{\numberline {4.5}Verwalten von Open-Source-Fähigkeiten und -Ressourcen}{20}{subsection.4.5}\protected@file@percent }
\newlabel{verwalten-von-open-source-fuxe4higkeiten-und--ressourcen}{{4.5}{20}{Verwalten von Open-Source-Fähigkeiten und -Ressourcen}{subsection.4.5}{}}
\@writefile{toc}{\contentsline {subsubsection}{Beschreibung}{20}{section*.32}\protected@file@percent }
\newlabel{beschreibung-5}{{4.5}{20}{Beschreibung}{section*.32}{}}
\newlabel{anwendungsbereiche}{{4.5}{20}{Anwendungsbereiche}{section*.33}{}}
\@writefile{toc}{\contentsline {paragraph}{Anwendungsbereiche}{20}{section*.33}\protected@file@percent }
\newlabel{kategorien}{{4.5}{21}{Kategorien}{section*.34}{}}
\@writefile{toc}{\contentsline {paragraph}{Kategorien}{21}{section*.34}\protected@file@percent }
\@writefile{toc}{\contentsline {subsubsection}{Gelegenheitsbeurteilung}{21}{section*.35}\protected@file@percent }
\newlabel{gelegenheitsbeurteilung-5}{{4.5}{21}{Gelegenheitsbeurteilung}{section*.35}{}}
\@writefile{toc}{\contentsline {subsubsection}{Fortschrittsbeurteilung}{21}{section*.36}\protected@file@percent }
\newlabel{fortschrittsbeurteilung-5}{{4.5}{21}{Fortschrittsbeurteilung}{section*.36}{}}
\@writefile{toc}{\contentsline {subsubsection}{Empfehlungen}{21}{section*.37}\protected@file@percent }
\newlabel{empfehlungen-5}{{4.5}{21}{Empfehlungen}{section*.37}{}}
\@writefile{toc}{\contentsline {subsubsection}{Hilfsmittel}{21}{section*.38}\protected@file@percent }
\newlabel{hilfsmittel-5}{{4.5}{21}{Hilfsmittel}{section*.38}{}}
\@writefile{toc}{\contentsline {section}{\numberline {5}Vertrauensziel-Aktivitäten}{23}{section.5}\protected@file@percent }
\newlabel{vertrauensziel-aktivituxe4ten}{{5}{23}{Vertrauensziel-Aktivitäten}{section.5}{}}
\@writefile{toc}{\contentsline {subsection}{\numberline {5.1}Einhaltung von Rechtsvorschriften verwalten}{23}{subsection.5.1}\protected@file@percent }
\newlabel{einhaltung-von-rechtsvorschriften-verwalten}{{5.1}{23}{Einhaltung von Rechtsvorschriften verwalten}{subsection.5.1}{}}
\@writefile{toc}{\contentsline {subsubsection}{Beschreibung}{23}{section*.39}\protected@file@percent }
\newlabel{beschreibung-6}{{5.1}{23}{Beschreibung}{section*.39}{}}
\@writefile{toc}{\contentsline {subsubsection}{Gelegenheitsbeurteilung}{23}{section*.40}\protected@file@percent }
\newlabel{gelegenheitsbeurteilung-6}{{5.1}{23}{Gelegenheitsbeurteilung}{section*.40}{}}
\@writefile{toc}{\contentsline {subsubsection}{Fortschrittsbeurteilung}{23}{section*.41}\protected@file@percent }
\newlabel{fortschrittsbeurteilung-6}{{5.1}{23}{Fortschrittsbeurteilung}{section*.41}{}}
\@writefile{toc}{\contentsline {subsubsection}{Werkzeuge}{24}{section*.42}\protected@file@percent }
\newlabel{werkzeuge-5}{{5.1}{24}{Werkzeuge}{section*.42}{}}
\@writefile{toc}{\contentsline {subsubsection}{Empfehlungen}{24}{section*.43}\protected@file@percent }
\newlabel{empfehlungen-6}{{5.1}{24}{Empfehlungen}{section*.43}{}}
\@writefile{toc}{\contentsline {subsubsection}{Hilfsmittel}{25}{section*.44}\protected@file@percent }
\newlabel{hilfsmittel-6}{{5.1}{25}{Hilfsmittel}{section*.44}{}}
\@writefile{toc}{\contentsline {subsection}{\numberline {5.2}Verwalten von Softwareschwachstellen}{25}{subsection.5.2}\protected@file@percent }
\newlabel{verwalten-von-softwareschwachstellen}{{5.2}{25}{Verwalten von Softwareschwachstellen}{subsection.5.2}{}}
\@writefile{toc}{\contentsline {subsubsection}{Beschreibung}{25}{section*.45}\protected@file@percent }
\newlabel{beschreibung-7}{{5.2}{25}{Beschreibung}{section*.45}{}}
\@writefile{toc}{\contentsline {subsubsection}{Gelegenheitsbeurteilung}{25}{section*.46}\protected@file@percent }
\newlabel{gelegenheitsbeurteilung-7}{{5.2}{25}{Gelegenheitsbeurteilung}{section*.46}{}}
\@writefile{toc}{\contentsline {subsubsection}{Fortschrittsbeurteilung}{26}{section*.47}\protected@file@percent }
\newlabel{fortschrittsbeurteilung-7}{{5.2}{26}{Fortschrittsbeurteilung}{section*.47}{}}
\@writefile{toc}{\contentsline {subsubsection}{Werkzeuge}{26}{section*.48}\protected@file@percent }
\newlabel{werkzeuge-6}{{5.2}{26}{Werkzeuge}{section*.48}{}}
\@writefile{toc}{\contentsline {subsubsection}{Hilfsmittel}{26}{section*.49}\protected@file@percent }
\newlabel{hilfsmittel-7}{{5.2}{26}{Hilfsmittel}{section*.49}{}}
\@writefile{toc}{\contentsline {subsection}{\numberline {5.3}Verwalten von Softwareabhängigkeiten}{27}{subsection.5.3}\protected@file@percent }
\newlabel{verwalten-von-softwareabhuxe4ngigkeiten}{{5.3}{27}{Verwalten von Softwareabhängigkeiten}{subsection.5.3}{}}
\@writefile{toc}{\contentsline {subsubsection}{Beschreibung}{27}{section*.50}\protected@file@percent }
\newlabel{beschreibung-8}{{5.3}{27}{Beschreibung}{section*.50}{}}
\@writefile{toc}{\contentsline {subsubsection}{Gelegenheitsbeurteilung}{27}{section*.51}\protected@file@percent }
\newlabel{gelegenheitsbeurteilung-8}{{5.3}{27}{Gelegenheitsbeurteilung}{section*.51}{}}
\@writefile{toc}{\contentsline {subsubsection}{Fortschrittsbeurteilung}{27}{section*.52}\protected@file@percent }
\newlabel{fortschrittsbeurteilung-8}{{5.3}{27}{Fortschrittsbeurteilung}{section*.52}{}}
\@writefile{toc}{\contentsline {subsubsection}{Werkzeuge}{27}{section*.53}\protected@file@percent }
\newlabel{werkzeuge-7}{{5.3}{27}{Werkzeuge}{section*.53}{}}
\@writefile{toc}{\contentsline {subsubsection}{Empfehlungen}{28}{section*.54}\protected@file@percent }
\newlabel{empfehlungen-7}{{5.3}{28}{Empfehlungen}{section*.54}{}}
\@writefile{toc}{\contentsline {subsubsection}{Hilfsmittel}{28}{section*.55}\protected@file@percent }
\newlabel{hilfsmittel-8}{{5.3}{28}{Hilfsmittel}{section*.55}{}}
\@writefile{toc}{\contentsline {subsection}{\numberline {5.4}Verwalten von Kennzahlen}{28}{subsection.5.4}\protected@file@percent }
\newlabel{verwalten-von-kennzahlen}{{5.4}{28}{Verwalten von Kennzahlen}{subsection.5.4}{}}
\@writefile{toc}{\contentsline {subsubsection}{Beschreibung}{28}{section*.56}\protected@file@percent }
\newlabel{beschreibung-9}{{5.4}{28}{Beschreibung}{section*.56}{}}
\@writefile{toc}{\contentsline {subsubsection}{Gelegenheitsbeurteilung}{29}{section*.57}\protected@file@percent }
\newlabel{gelegenheitsbeurteilung-9}{{5.4}{29}{Gelegenheitsbeurteilung}{section*.57}{}}
\@writefile{toc}{\contentsline {subsubsection}{Fortschrittsbeurteilung}{29}{section*.58}\protected@file@percent }
\newlabel{fortschrittsbeurteilung-9}{{5.4}{29}{Fortschrittsbeurteilung}{section*.58}{}}
\@writefile{toc}{\contentsline {subsubsection}{Werkzeuge}{29}{section*.59}\protected@file@percent }
\newlabel{werkzeuge-8}{{5.4}{29}{Werkzeuge}{section*.59}{}}
\@writefile{toc}{\contentsline {subsubsection}{Empfehlungen}{29}{section*.60}\protected@file@percent }
\newlabel{empfehlungen-8}{{5.4}{29}{Empfehlungen}{section*.60}{}}
\@writefile{toc}{\contentsline {subsubsection}{Hilfsmittel}{30}{section*.61}\protected@file@percent }
\newlabel{hilfsmittel-9}{{5.4}{30}{Hilfsmittel}{section*.61}{}}
\@writefile{toc}{\contentsline {subsection}{\numberline {5.5}Codeüberprüfungen durchführen}{30}{subsection.5.5}\protected@file@percent }
\newlabel{codeuxfcberpruxfcfungen-durchfuxfchren}{{5.5}{30}{Codeüberprüfungen durchführen}{subsection.5.5}{}}
\@writefile{toc}{\contentsline {subsubsection}{Beschreibung}{30}{section*.62}\protected@file@percent }
\newlabel{beschreibung-10}{{5.5}{30}{Beschreibung}{section*.62}{}}
\@writefile{toc}{\contentsline {subsubsection}{Gelegenheitsbeurteilung}{30}{section*.63}\protected@file@percent }
\newlabel{gelegenheitsbeurteilung-10}{{5.5}{30}{Gelegenheitsbeurteilung}{section*.63}{}}
\@writefile{toc}{\contentsline {subsubsection}{Fortschrittsbeurteilung}{31}{section*.64}\protected@file@percent }
\newlabel{fortschrittsbeurteilung-10}{{5.5}{31}{Fortschrittsbeurteilung}{section*.64}{}}
\@writefile{toc}{\contentsline {subsubsection}{Empfehlungen}{31}{section*.65}\protected@file@percent }
\newlabel{empfehlungen-9}{{5.5}{31}{Empfehlungen}{section*.65}{}}
\@writefile{toc}{\contentsline {subsubsection}{Hilfsmittel}{31}{section*.66}\protected@file@percent }
\newlabel{hilfsmittel-10}{{5.5}{31}{Hilfsmittel}{section*.66}{}}
\@writefile{toc}{\contentsline {section}{\numberline {6}Kulturziel-Aktivitäten}{32}{section.6}\protected@file@percent }
\newlabel{kulturziel-aktivituxe4ten}{{6}{32}{Kulturziel-Aktivitäten}{section.6}{}}
\@writefile{toc}{\contentsline {subsection}{\numberline {6.1}Förderung bewährter Verfahrensweisen bei der Open-Source-Entwicklung}{32}{subsection.6.1}\protected@file@percent }
\newlabel{fuxf6rderung-bewuxe4hrter-verfahrensweisen-bei-der-open-source-entwicklung}{{6.1}{32}{Förderung bewährter Verfahrensweisen bei der Open-Source-Entwicklung}{subsection.6.1}{}}
\@writefile{toc}{\contentsline {subsubsection}{Beschreibung}{32}{section*.67}\protected@file@percent }
\newlabel{beschreibung-11}{{6.1}{32}{Beschreibung}{section*.67}{}}
\newlabel{dokumente-der-community}{{6.1}{32}{Dokumente der Community}{section*.68}{}}
\@writefile{toc}{\contentsline {paragraph}{Dokumente der Community}{32}{section*.68}\protected@file@percent }
\newlabel{bewuxe4hrte-verfahren-von-reuse}{{6.1}{32}{bewährte Verfahren von REUSE}{section*.69}{}}
\@writefile{toc}{\contentsline {paragraph}{bewährte Verfahren von REUSE}{32}{section*.69}\protected@file@percent }
\@writefile{toc}{\contentsline {subsubsection}{Gelegenheitsbeurteilung}{32}{section*.70}\protected@file@percent }
\newlabel{gelegenheitsbeurteilung-11}{{6.1}{32}{Gelegenheitsbeurteilung}{section*.70}{}}
\@writefile{toc}{\contentsline {subsubsection}{Fortschrittsbeurteilung}{32}{section*.71}\protected@file@percent }
\newlabel{fortschrittsbeurteilung-11}{{6.1}{32}{Fortschrittsbeurteilung}{section*.71}{}}
\@writefile{toc}{\contentsline {subsubsection}{Werkzeuge}{33}{section*.72}\protected@file@percent }
\newlabel{werkzeuge-9}{{6.1}{33}{Werkzeuge}{section*.72}{}}
\@writefile{toc}{\contentsline {subsubsection}{Empfehlungen}{33}{section*.73}\protected@file@percent }
\newlabel{empfehlungen-10}{{6.1}{33}{Empfehlungen}{section*.73}{}}
\@writefile{toc}{\contentsline {subsubsection}{Hilfsmittel}{33}{section*.74}\protected@file@percent }
\newlabel{hilfsmittel-11}{{6.1}{33}{Hilfsmittel}{section*.74}{}}
\@writefile{toc}{\contentsline {subsection}{\numberline {6.2}Zu Open-Source-Projekten beitragen}{33}{subsection.6.2}\protected@file@percent }
\newlabel{zu-open-source-projekten-beitragen}{{6.2}{33}{Zu Open-Source-Projekten beitragen}{subsection.6.2}{}}
\@writefile{toc}{\contentsline {subsubsection}{Beschreibung}{33}{section*.75}\protected@file@percent }
\newlabel{beschreibung-12}{{6.2}{33}{Beschreibung}{section*.75}{}}
\@writefile{toc}{\contentsline {subsubsection}{Gelegenheitsbeurteilung}{33}{section*.76}\protected@file@percent }
\newlabel{gelegenheitsbeurteilung-12}{{6.2}{33}{Gelegenheitsbeurteilung}{section*.76}{}}
\@writefile{toc}{\contentsline {subsubsection}{Fortschrittsbeurteilung}{34}{section*.77}\protected@file@percent }
\newlabel{fortschrittsbeurteilung-12}{{6.2}{34}{Fortschrittsbeurteilung}{section*.77}{}}
\@writefile{toc}{\contentsline {subsubsection}{Werkzeuge}{34}{section*.78}\protected@file@percent }
\newlabel{werkzeuge-10}{{6.2}{34}{Werkzeuge}{section*.78}{}}
\@writefile{toc}{\contentsline {subsubsection}{Empfehlungen}{34}{section*.79}\protected@file@percent }
\newlabel{empfehlungen-11}{{6.2}{34}{Empfehlungen}{section*.79}{}}
\@writefile{toc}{\contentsline {subsubsection}{Hilfsmittel}{34}{section*.80}\protected@file@percent }
\newlabel{hilfsmittel-12}{{6.2}{34}{Hilfsmittel}{section*.80}{}}
\@writefile{toc}{\contentsline {subsection}{\numberline {6.3}Gehören Sie zur Open-Source-Community}{34}{subsection.6.3}\protected@file@percent }
\newlabel{gehuxf6ren-sie-zur-open-source-community}{{6.3}{34}{Gehören Sie zur Open-Source-Community}{subsection.6.3}{}}
\@writefile{toc}{\contentsline {subsubsection}{Beschreibung}{34}{section*.81}\protected@file@percent }
\newlabel{beschreibung-13}{{6.3}{34}{Beschreibung}{section*.81}{}}
\@writefile{toc}{\contentsline {subsubsection}{Gelegenheitsbeurteilung}{35}{section*.82}\protected@file@percent }
\newlabel{gelegenheitsbeurteilung-13}{{6.3}{35}{Gelegenheitsbeurteilung}{section*.82}{}}
\@writefile{toc}{\contentsline {subsubsection}{Fortschrittsbeurteilung}{35}{section*.83}\protected@file@percent }
\newlabel{fortschrittsbeurteilung-13}{{6.3}{35}{Fortschrittsbeurteilung}{section*.83}{}}
\@writefile{toc}{\contentsline {subsubsection}{Empfehlungen}{35}{section*.84}\protected@file@percent }
\newlabel{empfehlungen-12}{{6.3}{35}{Empfehlungen}{section*.84}{}}
\@writefile{toc}{\contentsline {subsubsection}{Hilfsmittel}{35}{section*.85}\protected@file@percent }
\newlabel{hilfsmittel-13}{{6.3}{35}{Hilfsmittel}{section*.85}{}}
\@writefile{toc}{\contentsline {subsection}{\numberline {6.4}Sichtweise der Personalabteilung}{35}{subsection.6.4}\protected@file@percent }
\newlabel{sichtweise-der-personalabteilung}{{6.4}{35}{Sichtweise der Personalabteilung}{subsection.6.4}{}}
\@writefile{toc}{\contentsline {subsubsection}{Beschreibung}{36}{section*.86}\protected@file@percent }
\newlabel{beschreibung-14}{{6.4}{36}{Beschreibung}{section*.86}{}}
\newlabel{verfahren}{{6.4}{36}{Verfahren}{section*.87}{}}
\@writefile{toc}{\contentsline {paragraph}{Verfahren}{36}{section*.87}\protected@file@percent }
\@writefile{toc}{\contentsline {subsubsection}{Gelegenheitsbeurteilung}{36}{section*.88}\protected@file@percent }
\newlabel{gelegenheitsbeurteilung-14}{{6.4}{36}{Gelegenheitsbeurteilung}{section*.88}{}}
\@writefile{toc}{\contentsline {subsubsection}{Fortschrittsbeurteilung}{37}{section*.89}\protected@file@percent }
\newlabel{fortschrittsbeurteilung-14}{{6.4}{37}{Fortschrittsbeurteilung}{section*.89}{}}
\@writefile{toc}{\contentsline {subsubsection}{Werkzeuge}{37}{section*.90}\protected@file@percent }
\newlabel{werkzeuge-11}{{6.4}{37}{Werkzeuge}{section*.90}{}}
\@writefile{toc}{\contentsline {subsubsection}{Empfehlungen}{37}{section*.91}\protected@file@percent }
\newlabel{empfehlungen-13}{{6.4}{37}{Empfehlungen}{section*.91}{}}
\@writefile{toc}{\contentsline {subsubsection}{Hilfsmittel}{38}{section*.92}\protected@file@percent }
\newlabel{hilfsmittel-14}{{6.4}{38}{Hilfsmittel}{section*.92}{}}
\@writefile{toc}{\contentsline {subsection}{\numberline {6.5}Upstream first}{38}{subsection.6.5}\protected@file@percent }
\newlabel{upstream-first}{{6.5}{38}{Upstream first}{subsection.6.5}{}}
\@writefile{toc}{\contentsline {subsubsection}{Beschreibung}{38}{section*.93}\protected@file@percent }
\newlabel{beschreibung-15}{{6.5}{38}{Beschreibung}{section*.93}{}}
\@writefile{toc}{\contentsline {subsubsection}{Gelegenheitsbeurteilung}{38}{section*.94}\protected@file@percent }
\newlabel{gelegenheitsbeurteilung-15}{{6.5}{38}{Gelegenheitsbeurteilung}{section*.94}{}}
\@writefile{toc}{\contentsline {subsubsection}{Fortschrittsbeurteilung}{38}{section*.95}\protected@file@percent }
\newlabel{fortschrittsbeurteilung-15}{{6.5}{38}{Fortschrittsbeurteilung}{section*.95}{}}
\@writefile{toc}{\contentsline {subsubsection}{Empfehlungen}{38}{section*.96}\protected@file@percent }
\newlabel{empfehlungen-14}{{6.5}{38}{Empfehlungen}{section*.96}{}}
\@writefile{toc}{\contentsline {subsubsection}{Hilfsmittel}{38}{section*.97}\protected@file@percent }
\newlabel{hilfsmittel-15}{{6.5}{38}{Hilfsmittel}{section*.97}{}}
\@writefile{toc}{\contentsline {section}{\numberline {7}Engagementziel-Aktivitäten}{40}{section.7}\protected@file@percent }
\newlabel{engagementziel-aktivituxe4ten}{{7}{40}{Engagementziel-Aktivitäten}{section.7}{}}
\@writefile{toc}{\contentsline {subsection}{\numberline {7.1}In Open Source Projekten engagieren}{40}{subsection.7.1}\protected@file@percent }
\newlabel{in-open-source-projekten-engagieren}{{7.1}{40}{In Open Source Projekten engagieren}{subsection.7.1}{}}
\@writefile{toc}{\contentsline {subsubsection}{Beschreibung}{40}{section*.98}\protected@file@percent }
\newlabel{beschreibung-16}{{7.1}{40}{Beschreibung}{section*.98}{}}
\@writefile{toc}{\contentsline {subsubsection}{Gelegenheitsbeurteilung}{40}{section*.99}\protected@file@percent }
\newlabel{gelegenheitsbeurteilung-16}{{7.1}{40}{Gelegenheitsbeurteilung}{section*.99}{}}
\@writefile{toc}{\contentsline {subsubsection}{Fortschrittsbeurteilung}{40}{section*.100}\protected@file@percent }
\newlabel{fortschrittsbeurteilung-16}{{7.1}{40}{Fortschrittsbeurteilung}{section*.100}{}}
\@writefile{toc}{\contentsline {subsubsection}{Werkzeuge}{41}{section*.101}\protected@file@percent }
\newlabel{werkzeuge-12}{{7.1}{41}{Werkzeuge}{section*.101}{}}
\@writefile{toc}{\contentsline {subsubsection}{Empfehlungen}{41}{section*.102}\protected@file@percent }
\newlabel{empfehlungen-15}{{7.1}{41}{Empfehlungen}{section*.102}{}}
\@writefile{toc}{\contentsline {subsubsection}{Hilfsmittel}{41}{section*.103}\protected@file@percent }
\newlabel{hilfsmittel-16}{{7.1}{41}{Hilfsmittel}{section*.103}{}}
\@writefile{toc}{\contentsline {subsection}{\numberline {7.2}Open-Source-Communities unterstützen}{41}{subsection.7.2}\protected@file@percent }
\newlabel{open-source-communities-unterstuxfctzen}{{7.2}{41}{Open-Source-Communities unterstützen}{subsection.7.2}{}}
\@writefile{toc}{\contentsline {subsubsection}{Beschreibung}{41}{section*.104}\protected@file@percent }
\newlabel{beschreibung-17}{{7.2}{41}{Beschreibung}{section*.104}{}}
\@writefile{toc}{\contentsline {subsubsection}{Gelegenheitsbeurteilung}{41}{section*.105}\protected@file@percent }
\newlabel{gelegenheitsbeurteilung-17}{{7.2}{41}{Gelegenheitsbeurteilung}{section*.105}{}}
\@writefile{toc}{\contentsline {subsubsection}{Fortschrittsbeurteilung}{41}{section*.106}\protected@file@percent }
\newlabel{fortschrittsbeurteilung-17}{{7.2}{41}{Fortschrittsbeurteilung}{section*.106}{}}
\@writefile{toc}{\contentsline {subsubsection}{Empfehlungen}{42}{section*.107}\protected@file@percent }
\newlabel{empfehlungen-16}{{7.2}{42}{Empfehlungen}{section*.107}{}}
\@writefile{toc}{\contentsline {subsubsection}{Hilfsmittel}{42}{section*.108}\protected@file@percent }
\newlabel{hilfsmittel-17}{{7.2}{42}{Hilfsmittel}{section*.108}{}}
\@writefile{toc}{\contentsline {subsection}{\numberline {7.3}Öffentliche Darstellung der Verwendung von Open Source}{42}{subsection.7.3}\protected@file@percent }
\newlabel{uxf6ffentliche-darstellung-der-verwendung-von-open-source}{{7.3}{42}{Öffentliche Darstellung der Verwendung von Open Source}{subsection.7.3}{}}
\@writefile{toc}{\contentsline {subsubsection}{Beschreibung}{42}{section*.109}\protected@file@percent }
\newlabel{beschreibung-18}{{7.3}{42}{Beschreibung}{section*.109}{}}
\@writefile{toc}{\contentsline {subsubsection}{Gelegenheitsbeurteilung}{42}{section*.110}\protected@file@percent }
\newlabel{gelegenheitsbeurteilung-18}{{7.3}{42}{Gelegenheitsbeurteilung}{section*.110}{}}
\@writefile{toc}{\contentsline {subsubsection}{Fortschrittsbeurteilung}{42}{section*.111}\protected@file@percent }
\newlabel{fortschrittsbeurteilung-18}{{7.3}{42}{Fortschrittsbeurteilung}{section*.111}{}}
\@writefile{toc}{\contentsline {subsubsection}{Empfehlungen}{42}{section*.112}\protected@file@percent }
\newlabel{empfehlungen-17}{{7.3}{42}{Empfehlungen}{section*.112}{}}
\@writefile{toc}{\contentsline {subsubsection}{Hilfsmittel}{42}{section*.113}\protected@file@percent }
\newlabel{hilfsmittel-18}{{7.3}{42}{Hilfsmittel}{section*.113}{}}
\@writefile{toc}{\contentsline {subsection}{\numberline {7.4}Mit Open-Source-Anbietern zusammenarbeiten}{43}{subsection.7.4}\protected@file@percent }
\newlabel{mit-open-source-anbietern-zusammenarbeiten}{{7.4}{43}{Mit Open-Source-Anbietern zusammenarbeiten}{subsection.7.4}{}}
\@writefile{toc}{\contentsline {subsubsection}{Beschreibung}{43}{section*.114}\protected@file@percent }
\newlabel{beschreibung-19}{{7.4}{43}{Beschreibung}{section*.114}{}}
\@writefile{toc}{\contentsline {subsubsection}{Gelegenheitsbeurteilung}{43}{section*.115}\protected@file@percent }
\newlabel{gelegenheitsbeurteilung-19}{{7.4}{43}{Gelegenheitsbeurteilung}{section*.115}{}}
\@writefile{toc}{\contentsline {subsubsection}{Fortschrittsbeurteilung}{43}{section*.116}\protected@file@percent }
\newlabel{fortschrittsbeurteilung-19}{{7.4}{43}{Fortschrittsbeurteilung}{section*.116}{}}
\@writefile{toc}{\contentsline {subsubsection}{Empfehlungen}{43}{section*.117}\protected@file@percent }
\newlabel{empfehlungen-18}{{7.4}{43}{Empfehlungen}{section*.117}{}}
\@writefile{toc}{\contentsline {subsubsection}{Hilfsmittel}{43}{section*.118}\protected@file@percent }
\newlabel{hilfsmittel-19}{{7.4}{43}{Hilfsmittel}{section*.118}{}}
\@writefile{toc}{\contentsline {subsection}{\numberline {7.5}Open-Source-Beschaffungspolitik}{44}{subsection.7.5}\protected@file@percent }
\newlabel{open-source-beschaffungspolitik}{{7.5}{44}{Open-Source-Beschaffungspolitik}{subsection.7.5}{}}
\@writefile{toc}{\contentsline {subsubsection}{Beschreibung}{44}{section*.119}\protected@file@percent }
\newlabel{beschreibung-20}{{7.5}{44}{Beschreibung}{section*.119}{}}
\@writefile{toc}{\contentsline {subsubsection}{Gelegenheitsbeurteilung}{44}{section*.120}\protected@file@percent }
\newlabel{gelegenheitsbeurteilung-20}{{7.5}{44}{Gelegenheitsbeurteilung}{section*.120}{}}
\@writefile{toc}{\contentsline {subsubsection}{Fortschrittsbeurteilung}{44}{section*.121}\protected@file@percent }
\newlabel{fortschrittsbeurteilung-20}{{7.5}{44}{Fortschrittsbeurteilung}{section*.121}{}}
\@writefile{toc}{\contentsline {subsubsection}{Empfehlungen}{44}{section*.122}\protected@file@percent }
\newlabel{empfehlungen-19}{{7.5}{44}{Empfehlungen}{section*.122}{}}
\@writefile{toc}{\contentsline {subsubsection}{Hilfsmittel}{45}{section*.123}\protected@file@percent }
\newlabel{hilfsmittel-20}{{7.5}{45}{Hilfsmittel}{section*.123}{}}
\@writefile{toc}{\contentsline {section}{\numberline {8}Strategieziel-Aktivitäten}{46}{section.8}\protected@file@percent }
\newlabel{strategieziel-aktivituxe4ten}{{8}{46}{Strategieziel-Aktivitäten}{section.8}{}}
\@writefile{toc}{\contentsline {subsection}{\numberline {8.1}Aufstellung einer Strategie für die Verwaltung von Open Source im Unternehmen}{46}{subsection.8.1}\protected@file@percent }
\newlabel{aufstellung-einer-strategie-fuxfcr-die-verwaltung-von-open-source-im-unternehmen}{{8.1}{46}{Aufstellung einer Strategie für die Verwaltung von Open Source im Unternehmen}{subsection.8.1}{}}
\@writefile{toc}{\contentsline {subsubsection}{Beschreibung}{46}{section*.124}\protected@file@percent }
\newlabel{beschreibung-21}{{8.1}{46}{Beschreibung}{section*.124}{}}
\@writefile{toc}{\contentsline {subsubsection}{Gelegenheitsbeurteilung}{46}{section*.125}\protected@file@percent }
\newlabel{gelegenheitsbeurteilung-21}{{8.1}{46}{Gelegenheitsbeurteilung}{section*.125}{}}
\@writefile{toc}{\contentsline {subsubsection}{Fortschrittsbeurteilung}{46}{section*.126}\protected@file@percent }
\newlabel{fortschrittsbeurteilung-21}{{8.1}{46}{Fortschrittsbeurteilung}{section*.126}{}}
\@writefile{toc}{\contentsline {subsubsection}{Empfehlungen}{46}{section*.127}\protected@file@percent }
\newlabel{empfehlungen-20}{{8.1}{46}{Empfehlungen}{section*.127}{}}
\@writefile{toc}{\contentsline {subsubsection}{Hilfsmittel}{47}{section*.128}\protected@file@percent }
\newlabel{hilfsmittel-21}{{8.1}{47}{Hilfsmittel}{section*.128}{}}
\@writefile{toc}{\contentsline {subsection}{\numberline {8.2}Wahrnehmung auf Vorstandsebene}{47}{subsection.8.2}\protected@file@percent }
\newlabel{wahrnehmung-auf-vorstandsebene}{{8.2}{47}{Wahrnehmung auf Vorstandsebene}{subsection.8.2}{}}
\@writefile{toc}{\contentsline {subsubsection}{Beschreibung}{47}{section*.129}\protected@file@percent }
\newlabel{beschreibung-22}{{8.2}{47}{Beschreibung}{section*.129}{}}
\@writefile{toc}{\contentsline {subsubsection}{Gelegenheitsbeurteilung}{47}{section*.130}\protected@file@percent }
\newlabel{gelegenheitsbeurteilung-22}{{8.2}{47}{Gelegenheitsbeurteilung}{section*.130}{}}
\@writefile{toc}{\contentsline {subsubsection}{Fortschrittsbeurteilung}{47}{section*.131}\protected@file@percent }
\newlabel{fortschrittsbeurteilung-22}{{8.2}{47}{Fortschrittsbeurteilung}{section*.131}{}}
\@writefile{toc}{\contentsline {subsubsection}{Empfehlungen}{48}{section*.132}\protected@file@percent }
\newlabel{empfehlungen-21}{{8.2}{48}{Empfehlungen}{section*.132}{}}
\@writefile{toc}{\contentsline {subsection}{\numberline {8.3}Open Source und die digitale Souveränität}{48}{subsection.8.3}\protected@file@percent }
\newlabel{open-source-und-die-digitale-souveruxe4nituxe4t}{{8.3}{48}{Open Source und die digitale Souveränität}{subsection.8.3}{}}
\@writefile{toc}{\contentsline {subsubsection}{Beschreibung}{48}{section*.133}\protected@file@percent }
\newlabel{beschreibung-23}{{8.3}{48}{Beschreibung}{section*.133}{}}
\@writefile{toc}{\contentsline {subsubsection}{Gelegenheitsbeurteilung}{49}{section*.134}\protected@file@percent }
\newlabel{gelegenheitsbeurteilung-23}{{8.3}{49}{Gelegenheitsbeurteilung}{section*.134}{}}
\@writefile{toc}{\contentsline {subsubsection}{Fortschrittsbeurteilung}{49}{section*.135}\protected@file@percent }
\newlabel{fortschrittsbeurteilung-23}{{8.3}{49}{Fortschrittsbeurteilung}{section*.135}{}}
\@writefile{toc}{\contentsline {subsubsection}{Empfehlungen}{49}{section*.136}\protected@file@percent }
\newlabel{empfehlungen-22}{{8.3}{49}{Empfehlungen}{section*.136}{}}
\@writefile{toc}{\contentsline {subsubsection}{Hilfsmittel}{49}{section*.137}\protected@file@percent }
\newlabel{hilfsmittel-22}{{8.3}{49}{Hilfsmittel}{section*.137}{}}
\@writefile{toc}{\contentsline {subsection}{\numberline {8.4}Open Source ermöglicht Innovation}{50}{subsection.8.4}\protected@file@percent }
\newlabel{open-source-ermuxf6glicht-innovation}{{8.4}{50}{Open Source ermöglicht Innovation}{subsection.8.4}{}}
\@writefile{toc}{\contentsline {subsubsection}{Beschreibung}{50}{section*.138}\protected@file@percent }
\newlabel{beschreibung-24}{{8.4}{50}{Beschreibung}{section*.138}{}}
\@writefile{toc}{\contentsline {subsubsection}{Gelegenheitsbeurteilung}{50}{section*.139}\protected@file@percent }
\newlabel{gelegenheitsbeurteilung-24}{{8.4}{50}{Gelegenheitsbeurteilung}{section*.139}{}}
\@writefile{toc}{\contentsline {subsubsection}{Fortschrittsbeurteilung}{50}{section*.140}\protected@file@percent }
\newlabel{fortschrittsbeurteilung-24}{{8.4}{50}{Fortschrittsbeurteilung}{section*.140}{}}
\@writefile{toc}{\contentsline {subsubsection}{Empfehlungen}{51}{section*.141}\protected@file@percent }
\newlabel{empfehlungen-23}{{8.4}{51}{Empfehlungen}{section*.141}{}}
\@writefile{toc}{\contentsline {subsubsection}{Hilfsmittel}{51}{section*.142}\protected@file@percent }
\newlabel{hilfsmittel-23}{{8.4}{51}{Hilfsmittel}{section*.142}{}}
\@writefile{toc}{\contentsline {subsection}{\numberline {8.5}Open Source ermöglicht die digitale Transformation}{51}{subsection.8.5}\protected@file@percent }
\newlabel{open-source-ermuxf6glicht-die-digitale-transformation}{{8.5}{51}{Open Source ermöglicht die digitale Transformation}{subsection.8.5}{}}
\@writefile{toc}{\contentsline {subsubsection}{Beschreibung}{51}{section*.143}\protected@file@percent }
\newlabel{beschreibung-25}{{8.5}{51}{Beschreibung}{section*.143}{}}
\@writefile{toc}{\contentsline {subsubsection}{Gelegenheitsbeurteilung}{52}{section*.144}\protected@file@percent }
\newlabel{gelegenheitsbeurteilung-25}{{8.5}{52}{Gelegenheitsbeurteilung}{section*.144}{}}
\@writefile{toc}{\contentsline {subsubsection}{Fortschrittsbeurteilung}{52}{section*.145}\protected@file@percent }
\newlabel{fortschrittsbeurteilung-25}{{8.5}{52}{Fortschrittsbeurteilung}{section*.145}{}}
\@writefile{toc}{\contentsline {subsubsection}{Empfehlungen}{52}{section*.146}\protected@file@percent }
\newlabel{empfehlungen-24}{{8.5}{52}{Empfehlungen}{section*.146}{}}
\@writefile{toc}{\contentsline {subsubsection}{Hilfsmittel}{53}{section*.147}\protected@file@percent }
\newlabel{hilfsmittel-24}{{8.5}{53}{Hilfsmittel}{section*.147}{}}
\@writefile{toc}{\contentsline {section}{\numberline {9}Fazit}{54}{section.9}\protected@file@percent }
\newlabel{fazit}{{9}{54}{Fazit}{section.9}{}}
\@writefile{toc}{\contentsline {subsection}{\numberline {9.1}Kontakt}{54}{subsection.9.1}\protected@file@percent }
\newlabel{kontakt}{{9.1}{54}{Kontakt}{subsection.9.1}{}}
\@writefile{toc}{\contentsline {subsection}{\numberline {9.2}Anhang: Vorlage für eine maßgeschneiderte Aktivitäts-Scorecard}{54}{subsection.9.2}\protected@file@percent }
\newlabel{anhang-vorlage-fuxfcr-eine-mauxdfgeschneiderte-aktivituxe4ts-scorecard}{{9.2}{54}{Anhang: Vorlage für eine maßgeschneiderte Aktivitäts-Scorecard}{subsection.9.2}{}}
\gdef \@abspage@last{57}
